,Epochs,Params,Train loss,Test loss
0,0,"tensor([0.4527, 0.6703, 0.5762])",1.0834068601101172,1.454868142628111
1,1,"tensor([0.4177, 0.6437, 0.4406])",0.9483646641951055,1.3409130442142487
2,2,"tensor([0.3984, 0.6338, 0.3149])",0.855431556366384,1.2454352559015387
3,3,"tensor([0.3986, 0.6396, 0.1986])",0.7857525282911957,1.1651563081145286
4,4,"tensor([0.4141, 0.6552, 0.0879])",0.7241833001747727,1.0925859263911843
5,5,"tensor([ 0.4390,  0.6740, -0.0196])",0.6643146282294765,1.02292423421517
6,6,"tensor([ 0.4689,  0.6912, -0.1240])",0.6068147981725633,0.9543000014452264
7,7,"tensor([ 0.5014,  0.7043, -0.2246])",0.5534426097385585,0.8868941175905638
8,8,"tensor([ 0.5354,  0.7129, -0.3211])",0.5045159052917734,0.8216304407733788
9,9,"tensor([ 0.5704,  0.7177, -0.4139])",0.45913941141450776,0.7590055338581078
10,10,"tensor([ 0.6063,  0.7198, -0.5039])",0.41608710412401706,0.6985898311807613
11,11,"tensor([ 0.6427,  0.7207, -0.5920])",0.3744224667036906,0.6390736956734144
12,12,"tensor([ 0.6791,  0.7222, -0.6790])",0.33374340530484914,0.5786019523711002
13,13,"tensor([ 0.7151,  0.7263, -0.7653])",0.294079144507632,0.515305222508905
14,14,"tensor([ 0.7505,  0.7348, -0.8507])",0.2555210447340505,0.44797402649005563
15,15,"tensor([ 0.7852,  0.7490, -0.9354])",0.2178784558645566,0.3767402190121356
16,16,"tensor([ 0.8194,  0.7693, -1.0189])",0.1807526969455648,0.3035412153042853
17,17,"tensor([ 0.8530,  0.7949, -1.1009])",0.14410935178864748,0.23207438417710363
18,18,"tensor([ 0.8853,  0.8239, -1.1799])",0.10891426730365765,0.16701866792282088
19,19,"tensor([ 0.9146,  0.8540, -1.2542])",0.07716974412555032,0.11261727766599507
20,20,"tensor([ 0.9395,  0.8827, -1.3212])",0.051036966921822115,0.07118433214927791
21,21,"tensor([ 0.9588,  0.9084, -1.3791])",0.031629475369454665,0.042432332362322994
22,22,"tensor([ 0.9727,  0.9300, -1.4269])",0.0185449711777801,0.0240735814979098
23,23,"tensor([ 0.9821,  0.9475, -1.4651])",0.010395071419707165,0.013119442919705761
24,24,"tensor([ 0.9883,  0.9613, -1.4945])",0.005615239623771799,0.006916614774272602
25,25,"tensor([ 0.9922,  0.9719, -1.5165])",0.002937895044480001,0.003543474471925947
26,26,"tensor([ 0.9948,  0.9799, -1.5327])",0.0014933205205812782,0.0017685142185723634
27,27,"tensor([ 0.9965,  0.9858, -1.5444])",0.0007388773248459302,0.0008609421871210543
28,28,"tensor([ 0.9976,  0.9901, -1.5527])",0.00035635277180858795,0.0004090434156711353
29,29,"tensor([ 0.9984,  0.9932, -1.5586])",0.00016765962686122294,0.00018970471090369755
30,30,"tensor([ 0.9989,  0.9954, -1.5626])",7.698796026971876e-05,8.588117683885343e-05
31,31,"tensor([ 0.9993,  0.9969, -1.5654])",3.4512010025338216e-05,3.795244752836879e-05
32,32,"tensor([ 0.9995,  0.9980, -1.5672])",1.5103987645233018e-05,1.636871447558974e-05
33,33,"tensor([ 0.9997,  0.9987, -1.5685])",6.452297060945966e-06,6.889641943246261e-06
34,34,"tensor([ 0.9998,  0.9992, -1.5693])",2.689488451181887e-06,2.82823230392637e-06
35,35,"tensor([ 0.9999,  0.9995, -1.5699])",1.0938120527015371e-06,1.1327789522397324e-06
36,36,"tensor([ 0.9999,  0.9997, -1.5702])",4.337940855236866e-07,4.420368702895416e-07
37,37,"tensor([ 1.0000,  0.9998, -1.5704])",1.6768569711445024e-07,1.6805687440779594e-07
38,38,"tensor([ 1.0000,  0.9999, -1.5706])",6.320023140382603e-08,6.229116831235614e-08
39,39,"tensor([ 1.0000,  0.9999, -1.5707])",2.3166591329726316e-08,2.2437852109646884e-08
40,40,"tensor([ 1.0000,  1.0000, -1.5707])",8.272074421000753e-09,7.881696486577994e-09
41,41,"tensor([ 1.0000,  1.0000, -1.5708])",2.8810131524892312e-09,2.692929848002734e-09
42,42,"tensor([ 1.0000,  1.0000, -1.5708])",9.714285242878872e-10,9.00495518152411e-10
43,43,"tensor([ 1.0000,  1.0000, -1.5708])",3.204198145700943e-10,2.962990985899694e-10
44,44,"tensor([ 1.0000,  1.0000, -1.5708])",1.0498118221957675e-10,9.366932174348364e-11
45,45,"tensor([ 1.0000,  1.0000, -1.5708])",3.3785904074434824e-11,2.9611763041614835e-11
46,46,"tensor([ 1.0000,  1.0000, -1.5708])",9.04410463187233e-12,6.5084471839726985e-12
47,47,"tensor([ 1.0000,  1.0000, -1.5708])",2.97129397475171e-12,4.5669134446368884e-12
48,48,"tensor([ 1.0000,  1.0000, -1.5708])",2.5337138637171465e-12,4.5669134446368884e-12
49,49,"tensor([ 1.0000,  1.0000, -1.5708])",2.5337138637171465e-12,4.5669134446368884e-12
50,50,"tensor([ 1.0000,  1.0000, -1.5708])",2.5337138637171465e-12,4.5669134446368884e-12
51,51,"tensor([ 1.0000,  1.0000, -1.5708])",2.5337138637171465e-12,4.5669134446368884e-12
52,52,"tensor([ 1.0000,  1.0000, -1.5708])",2.5337138637171465e-12,4.5669134446368884e-12
53,53,"tensor([ 1.0000,  1.0000, -1.5708])",2.5337138637171465e-12,4.5669134446368884e-12
54,54,"tensor([ 1.0000,  1.0000, -1.5708])",2.5337138637171465e-12,4.5669134446368884e-12
55,55,"tensor([ 1.0000,  1.0000, -1.5708])",2.5337138637171465e-12,4.5669134446368884e-12
56,56,"tensor([ 1.0000,  1.0000, -1.5708])",2.5337138637171465e-12,4.5669134446368884e-12
57,57,"tensor([ 1.0000,  1.0000, -1.5708])",2.5337138637171465e-12,4.5669134446368884e-12
58,58,"tensor([ 1.0000,  1.0000, -1.5708])",2.5337138637171465e-12,4.5669134446368884e-12
59,59,"tensor([ 1.0000,  1.0000, -1.5708])",2.5337138637171465e-12,4.5669134446368884e-12
60,60,"tensor([ 1.0000,  1.0000, -1.5708])",2.531440126962714e-12,4.211364521000682e-12
61,61,"tensor([ 1.0000,  1.0000, -1.5708])",2.2978362962389197e-12,4.167630615614648e-12
62,62,"tensor([ 1.0000,  1.0000, -1.5708])",2.279628638635067e-12,3.98737536044802e-12
63,63,"tensor([ 1.0000,  1.0000, -1.5708])",2.04770249367936e-12,3.833298609090541e-12
64,64,"tensor([ 1.0000,  1.0000, -1.5708])",2.0253181770568672e-12,3.833298609090541e-12
65,65,"tensor([ 1.0000,  1.0000, -1.5708])",2.0253181770568672e-12,3.833298609090541e-12
66,66,"tensor([ 1.0000,  1.0000, -1.5708])",2.022618114660979e-12,3.465411638203797e-12
67,67,"tensor([ 1.0000,  1.0000, -1.5708])",1.904964311294499e-12,3.465411638203797e-12
68,68,"tensor([ 1.0000,  1.0000, -1.5708])",1.9210225771226776e-12,3.329848966004967e-12
69,69,"tensor([ 1.0000,  1.0000, -1.5708])",1.9117855215577962e-12,2.8247552907867402e-12
70,70,"tensor([ 1.0000,  1.0000, -1.5708])",1.5539102643513659e-12,2.8247552907867402e-12
71,71,"tensor([ 1.0000,  1.0000, -1.5708])",1.5539102643513659e-12,2.8247552907867402e-12
72,72,"tensor([ 1.0000,  1.0000, -1.5708])",1.5539102643513659e-12,2.8247552907867402e-12
73,73,"tensor([ 1.0000,  1.0000, -1.5708])",1.5608380560250268e-12,2.77899633860379e-12
74,74,"tensor([ 1.0000,  1.0000, -1.5708])",1.5186651242116155e-12,2.77899633860379e-12
75,75,"tensor([ 1.0000,  1.0000, -1.5708])",1.581048555965303e-12,2.490444933611613e-12
76,76,"tensor([ 1.0000,  1.0000, -1.5708])",1.4798984954156325e-12,2.490444933611613e-12
77,77,"tensor([ 1.0000,  1.0000, -1.5708])",1.4776247586612002e-12,2.260569370582388e-12
78,78,"tensor([ 1.0000,  1.0000, -1.5708])",1.2932417636779547e-12,2.260569370582388e-12
79,79,"tensor([ 1.0000,  1.0000, -1.5708])",1.2994146036948706e-12,2.0274901202377293e-12
80,80,"tensor([ 1.0000,  1.0000, -1.5708])",1.284623657449302e-12,2.018404055004197e-12
81,81,"tensor([ 1.0000,  1.0000, -1.5708])",1.1295128721222624e-12,2.018404055004197e-12
82,82,"tensor([ 1.0000,  1.0000, -1.5708])",1.1295128721222624e-12,2.018404055004197e-12
83,83,"tensor([ 1.0000,  1.0000, -1.5708])",1.1295128721222624e-12,2.018404055004197e-12
84,84,"tensor([ 1.0000,  1.0000, -1.5708])",1.1295128721222624e-12,2.018404055004197e-12
85,85,"tensor([ 1.0000,  1.0000, -1.5708])",1.1279496781035902e-12,1.9034560039266067e-12
86,86,"tensor([ 1.0000,  1.0000, -1.5708])",9.687237817468386e-13,1.9034560039266067e-12
87,87,"tensor([ 1.0000,  1.0000, -1.5708])",9.687237817468386e-13,1.9034560039266067e-12
88,88,"tensor([ 1.0000,  1.0000, -1.5708])",9.687237817468386e-13,1.9034560039266067e-12
89,89,"tensor([ 1.0000,  1.0000, -1.5708])",9.687237817468386e-13,1.9034560039266067e-12
90,90,"tensor([ 1.0000,  1.0000, -1.5708])",9.687237817468386e-13,1.9034560039266067e-12
91,91,"tensor([ 1.0000,  1.0000, -1.5708])",9.687237817468386e-13,1.9034560039266067e-12
92,92,"tensor([ 1.0000,  1.0000, -1.5708])",9.664500449924063e-13,1.8038601168335334e-12
93,93,"tensor([ 1.0000,  1.0000, -1.5708])",8.712671556443397e-13,1.6446785600088276e-12
94,94,"tensor([ 1.0000,  1.0000, -1.5708])",8.688157832059673e-13,1.310884612665264e-12
95,95,"tensor([ 1.0000,  1.0000, -1.5708])",7.547647923322743e-13,1.310884612665264e-12
96,96,"tensor([ 1.0000,  1.0000, -1.5708])",7.547647923322743e-13,1.310884612665264e-12
97,97,"tensor([ 1.0000,  1.0000, -1.5708])",7.547647923322743e-13,1.310884612665264e-12
98,98,"tensor([ 1.0000,  1.0000, -1.5708])",7.547647923322743e-13,1.310884612665264e-12
99,99,"tensor([ 1.0000,  1.0000, -1.5708])",7.547647923322743e-13,1.310884612665264e-12
100,100,"tensor([ 1.0000,  1.0000, -1.5708])",7.547647923322743e-13,1.310884612665264e-12
101,101,"tensor([ 1.0000,  1.0000, -1.5708])",7.547647923322743e-13,1.310884612665264e-12
102,102,"tensor([ 1.0000,  1.0000, -1.5708])",7.524910555778419e-13,1.1867389189401668e-12
103,103,"tensor([ 1.0000,  1.0000, -1.5708])",5.531109511375254e-13,1.1867389189401668e-12
104,104,"tensor([ 1.0000,  1.0000, -1.5708])",5.531109511375254e-13,1.1867389189401668e-12
105,105,"tensor([ 1.0000,  1.0000, -1.5708])",5.531109511375254e-13,1.1867389189401668e-12
106,106,"tensor([ 1.0000,  1.0000, -1.5708])",5.531109511375254e-13,1.1867389189401668e-12
107,107,"tensor([ 1.0000,  1.0000, -1.5708])",5.582268588349981e-13,9.857719848738178e-13
108,108,"tensor([ 1.0000,  1.0000, -1.5708])",5.50730632972729e-13,9.857719848738178e-13
109,109,"tensor([ 1.0000,  1.0000, -1.5708])",5.50730632972729e-13,9.975669942874354e-13
110,110,"tensor([ 1.0000,  1.0000, -1.5708])",5.094929252796865e-13,8.629280276450935e-13
111,111,"tensor([ 1.0000,  1.0000, -1.5708])",4.854676990267981e-13,8.629280276450935e-13
112,112,"tensor([ 1.0000,  1.0000, -1.5708])",4.854676990267981e-13,8.629280276450935e-13
113,113,"tensor([ 1.0000,  1.0000, -1.5708])",4.854676990267981e-13,8.629280276450935e-13
114,114,"tensor([ 1.0000,  1.0000, -1.5708])",4.84757156291038e-13,7.303361127669605e-13
115,115,"tensor([ 1.0000,  1.0000, -1.5708])",3.770205588699005e-13,7.303361127669605e-13
116,116,"tensor([ 1.0000,  1.0000, -1.5708])",3.770205588699005e-13,7.303361127669605e-13
117,117,"tensor([ 1.0000,  1.0000, -1.5708])",3.770205588699005e-13,7.303361127669605e-13
118,118,"tensor([ 1.0000,  1.0000, -1.5708])",3.770205588699005e-13,7.303361127669605e-13
119,119,"tensor([ 1.0000,  1.0000, -1.5708])",3.770205588699005e-13,7.303361127669605e-13
120,120,"tensor([ 1.0000,  1.0000, -1.5708])",3.770205588699005e-13,7.303361127669605e-13
121,121,"tensor([ 1.0000,  1.0000, -1.5708])",3.770205588699005e-13,7.303361127669605e-13
122,122,"tensor([ 1.0000,  1.0000, -1.5708])",3.770205588699005e-13,7.303361127669605e-13
123,123,"tensor([ 1.0000,  1.0000, -1.5708])",3.770205588699005e-13,7.303361127669605e-13
124,124,"tensor([ 1.0000,  1.0000, -1.5708])",3.770205588699005e-13,7.303361127669605e-13
125,125,"tensor([ 1.0000,  1.0000, -1.5708])",3.770205588699005e-13,7.303361127669605e-13
126,126,"tensor([ 1.0000,  1.0000, -1.5708])",3.770205588699005e-13,7.303361127669605e-13
127,127,"tensor([ 1.0000,  1.0000, -1.5708])",3.764521246812924e-13,6.545123210771608e-13
128,128,"tensor([ 1.0000,  1.0000, -1.5708])",3.595550853580098e-13,5.048781271527192e-13
129,129,"tensor([ 1.0000,  1.0000, -1.5708])",2.181726500849468e-13,5.048781271527192e-13
130,130,"tensor([ 1.0000,  1.0000, -1.5708])",2.181726500849468e-13,5.048781271527192e-13
131,131,"tensor([ 1.0000,  1.0000, -1.5708])",2.181726500849468e-13,5.048781271527192e-13
132,132,"tensor([ 1.0000,  1.0000, -1.5708])",2.181726500849468e-13,5.048781271527192e-13
133,133,"tensor([ 1.0000,  1.0000, -1.5708])",2.181726500849468e-13,5.048781271527192e-13
134,134,"tensor([ 1.0000,  1.0000, -1.5708])",2.181726500849468e-13,5.048781271527192e-13
135,135,"tensor([ 1.0000,  1.0000, -1.5708])",2.181726500849468e-13,5.048781271527192e-13
136,136,"tensor([ 1.0000,  1.0000, -1.5708])",2.181726500849468e-13,5.048781271527192e-13
137,137,"tensor([ 1.0000,  1.0000, -1.5708])",2.181726500849468e-13,5.048781271527192e-13
138,138,"tensor([ 1.0000,  1.0000, -1.5708])",2.181726500849468e-13,5.048781271527192e-13
139,139,"tensor([ 1.0000,  1.0000, -1.5708])",2.181726500849468e-13,5.048781271527192e-13
140,140,"tensor([ 1.0000,  1.0000, -1.5708])",2.181726500849468e-13,5.048781271527192e-13
141,141,"tensor([ 1.0000,  1.0000, -1.5708])",2.181726500849468e-13,5.048781271527192e-13
142,142,"tensor([ 1.0000,  1.0000, -1.5708])",2.181726500849468e-13,5.048781271527192e-13
143,143,"tensor([ 1.0000,  1.0000, -1.5708])",2.2005558833471107e-13,4.577424984192336e-13
144,144,"tensor([ 1.0000,  1.0000, -1.5708])",2.2147667380623126e-13,4.577424984192336e-13
145,145,"tensor([ 1.0000,  1.0000, -1.5708])",2.2147667380623126e-13,4.577424984192336e-13
146,146,"tensor([ 1.0000,  1.0000, -1.5708])",2.2147667380623126e-13,4.577424984192336e-13
147,147,"tensor([ 1.0000,  1.0000, -1.5708])",2.2147667380623126e-13,4.577424984192336e-13
148,148,"tensor([ 1.0000,  1.0000, -1.5708])",2.2147667380623126e-13,4.577424984192336e-13
149,149,"tensor([ 1.0000,  1.0000, -1.5708])",2.210503481647752e-13,3.078298943873237e-13
150,150,"tensor([ 1.0000,  1.0000, -1.5708])",1.2655397780073074e-13,3.078298943873237e-13
151,151,"tensor([ 1.0000,  1.0000, -1.5708])",1.2655397780073074e-13,3.078298943873237e-13
152,152,"tensor([ 1.0000,  1.0000, -1.5708])",1.2655397780073074e-13,3.078298943873237e-13
153,153,"tensor([ 1.0000,  1.0000, -1.5708])",1.2655397780073074e-13,3.078298943873237e-13
154,154,"tensor([ 1.0000,  1.0000, -1.5708])",1.2655397780073074e-13,3.078298943873237e-13
155,155,"tensor([ 1.0000,  1.0000, -1.5708])",1.2655397780073074e-13,3.078298943873237e-13
156,156,"tensor([ 1.0000,  1.0000, -1.5708])",1.2655397780073074e-13,3.078298943873237e-13
157,157,"tensor([ 1.0000,  1.0000, -1.5708])",1.2655397780073074e-13,3.078298943873237e-13
158,158,"tensor([ 1.0000,  1.0000, -1.5708])",1.2655397780073074e-13,3.078298943873237e-13
159,159,"tensor([ 1.0000,  1.0000, -1.5708])",1.2655397780073074e-13,3.078298943873237e-13
160,160,"tensor([ 1.0000,  1.0000, -1.5708])",1.2655397780073074e-13,3.078298943873237e-13
161,161,"tensor([ 1.0000,  1.0000, -1.5708])",1.3582656050240004e-13,2.257488857307366e-13
162,162,"tensor([ 1.0000,  1.0000, -1.5708])",1.172834767672326e-13,2.257488857307366e-13
163,163,"tensor([ 1.0000,  1.0000, -1.5708])",1.172834767672326e-13,2.257488857307366e-13
164,164,"tensor([ 1.0000,  1.0000, -1.5708])",1.172834767672326e-13,2.257488857307366e-13
165,165,"tensor([ 1.0000,  1.0000, -1.5708])",1.172834767672326e-13,2.257488857307366e-13
166,166,"tensor([ 1.0000,  1.0000, -1.5708])",1.172834767672326e-13,2.257488857307366e-13
167,167,"tensor([ 1.0000,  1.0000, -1.5708])",1.172834767672326e-13,2.257488857307366e-13
168,168,"tensor([ 1.0000,  1.0000, -1.5708])",1.165729340314725e-13,1.9642789565038621e-13
169,169,"tensor([ 1.0000,  1.0000, -1.5708])",9.052113442500897e-14,1.9642789565038621e-13
170,170,"tensor([ 1.0000,  1.0000, -1.5708])",9.052113442500897e-14,1.9642789565038621e-13
171,171,"tensor([ 1.0000,  1.0000, -1.5708])",9.052113442500897e-14,1.9642789565038621e-13
172,172,"tensor([ 1.0000,  1.0000, -1.5708])",9.052113442500897e-14,1.9642789565038621e-13
173,173,"tensor([ 1.0000,  1.0000, -1.5708])",9.21198555804692e-14,1.503107881217769e-13
174,174,"tensor([ 1.0000,  1.0000, -1.5708])",8.018273761969951e-14,1.6111103770533042e-13
175,175,"tensor([ 1.0000,  1.0000, -1.5708])",5.172856121313935e-14,1.6111103770533042e-13
176,176,"tensor([ 1.0000,  1.0000, -1.5708])",5.172856121313935e-14,1.6111103770533042e-13
177,177,"tensor([ 1.0000,  1.0000, -1.5708])",5.172856121313935e-14,1.6111103770533042e-13
178,178,"tensor([ 1.0000,  1.0000, -1.5708])",7.45862491777563e-14,1.503107881217769e-13
179,179,"tensor([ 1.0000,  1.0000, -1.5708])",8.018273761969951e-14,1.6111103770533042e-13
180,180,"tensor([ 1.0000,  1.0000, -1.5708])",5.172856121313935e-14,1.6111103770533042e-13
181,181,"tensor([ 1.0000,  1.0000, -1.5708])",7.45862491777563e-14,1.503107881217769e-13
182,182,"tensor([ 1.0000,  1.0000, -1.5708])",8.018273761969951e-14,1.6111103770533042e-13
183,183,"tensor([ 1.0000,  1.0000, -1.5708])",5.172856121313935e-14,1.6111103770533042e-13
184,184,"tensor([ 1.0000,  1.0000, -1.5708])",7.45862491777563e-14,1.503107881217769e-13
185,185,"tensor([ 1.0000,  1.0000, -1.5708])",7.961430343109143e-14,9.968683864491901e-14
186,186,"tensor([ 1.0000,  1.0000, -1.5708])",4.416350152334353e-14,6.392877546779197e-14
187,187,"tensor([ 1.0000,  1.0000, -1.5708])",2.4200026206046277e-14,6.392877546779197e-14
188,188,"tensor([ 1.0000,  1.0000, -1.5708])",2.4200026206046277e-14,6.392877546779197e-14
189,189,"tensor([ 1.0000,  1.0000, -1.5708])",2.4200026206046277e-14,6.392877546779197e-14
190,190,"tensor([ 1.0000,  1.0000, -1.5708])",2.4200026206046277e-14,6.392877546779197e-14
191,191,"tensor([ 1.0000,  1.0000, -1.5708])",2.4200026206046277e-14,6.392877546779197e-14
192,192,"tensor([ 1.0000,  1.0000, -1.5708])",2.4200026206046277e-14,6.392877546779197e-14
193,193,"tensor([ 1.0000,  1.0000, -1.5708])",2.4200026206046277e-14,6.392877546779197e-14
194,194,"tensor([ 1.0000,  1.0000, -1.5708])",2.4200026206046277e-14,6.392877546779197e-14
195,195,"tensor([ 1.0000,  1.0000, -1.5708])",2.4200026206046277e-14,6.392877546779197e-14
196,196,"tensor([ 1.0000,  1.0000, -1.5708])",2.4200026206046277e-14,6.392877546779197e-14
197,197,"tensor([ 1.0000,  1.0000, -1.5708])",2.4200026206046277e-14,6.392877546779197e-14
198,198,"tensor([ 1.0000,  1.0000, -1.5708])",2.4200026206046277e-14,6.392877546779197e-14
199,199,"tensor([ 1.0000,  1.0000, -1.5708])",2.4200026206046277e-14,6.392877546779197e-14
200,200,"tensor([ 1.0000,  1.0000, -1.5708])",2.4200026206046277e-14,6.392877546779197e-14
201,201,"tensor([ 1.0000,  1.0000, -1.5708])",2.4200026206046277e-14,6.392877546779197e-14
202,202,"tensor([ 1.0000,  1.0000, -1.5708])",2.4200026206046277e-14,6.392877546779197e-14
203,203,"tensor([ 1.0000,  1.0000, -1.5708])",2.4200026206046277e-14,6.392877546779197e-14
204,204,"tensor([ 1.0000,  1.0000, -1.5708])",2.4200026206046277e-14,6.392877546779197e-14
205,205,"tensor([ 1.0000,  1.0000, -1.5708])",2.4200026206046277e-14,6.392877546779197e-14
206,206,"tensor([ 1.0000,  1.0000, -1.5708])",2.4200026206046277e-14,6.392877546779197e-14
207,207,"tensor([ 1.0000,  1.0000, -1.5708])",2.4200026206046277e-14,6.392877546779197e-14
208,208,"tensor([ 1.0000,  1.0000, -1.5708])",2.4200026206046277e-14,6.392877546779197e-14
209,209,"tensor([ 1.0000,  1.0000, -1.5708])",2.4200026206046277e-14,6.392877546779197e-14
210,210,"tensor([ 1.0000,  1.0000, -1.5708])",2.4200026206046277e-14,6.392877546779197e-14
211,211,"tensor([ 1.0000,  1.0000, -1.5708])",2.4200026206046277e-14,6.392877546779197e-14
212,212,"tensor([ 1.0000,  1.0000, -1.5708])",2.4200026206046277e-14,6.392877546779197e-14
213,213,"tensor([ 1.0000,  1.0000, -1.5708])",2.4200026206046277e-14,6.392877546779197e-14
214,214,"tensor([ 1.0000,  1.0000, -1.5708])",2.4200026206046277e-14,6.392877546779197e-14
215,215,"tensor([ 1.0000,  1.0000, -1.5708])",2.4200026206046277e-14,6.392877546779197e-14
216,216,"tensor([ 1.0000,  1.0000, -1.5708])",2.4200026206046277e-14,6.392877546779197e-14
217,217,"tensor([ 1.0000,  1.0000, -1.5708])",2.4200026206046277e-14,6.392877546779197e-14
218,218,"tensor([ 1.0000,  1.0000, -1.5708])",2.4200026206046277e-14,6.392877546779197e-14
219,219,"tensor([ 1.0000,  1.0000, -1.5708])",2.4200026206046277e-14,6.392877546779197e-14
220,220,"tensor([ 1.0000,  1.0000, -1.5708])",2.4200026206046277e-14,6.392877546779197e-14
221,221,"tensor([ 1.0000,  1.0000, -1.5708])",2.4200026206046277e-14,6.392877546779197e-14
222,222,"tensor([ 1.0000,  1.0000, -1.5708])",2.4200026206046277e-14,6.392877546779197e-14
223,223,"tensor([ 1.0000,  1.0000, -1.5708])",2.4200026206046277e-14,6.392877546779197e-14
224,224,"tensor([ 1.0000,  1.0000, -1.5708])",2.4200026206046277e-14,6.392877546779197e-14
225,225,"tensor([ 1.0000,  1.0000, -1.5708])",2.4342134753198297e-14,2.988545175219848e-14
226,226,"tensor([ 1.0000,  1.0000, -1.5708])",1.1430796088320039e-14,2.988545175219848e-14
227,227,"tensor([ 1.0000,  1.0000, -1.5708])",1.1430796088320039e-14,2.988545175219848e-14
228,228,"tensor([ 1.0000,  1.0000, -1.5708])",1.1430796088320039e-14,2.988545175219848e-14
229,229,"tensor([ 1.0000,  1.0000, -1.5708])",1.1430796088320039e-14,2.988545175219848e-14
230,230,"tensor([ 1.0000,  1.0000, -1.5708])",1.1430796088320039e-14,2.988545175219848e-14
231,231,"tensor([ 1.0000,  1.0000, -1.5708])",1.1430796088320039e-14,2.988545175219848e-14
232,232,"tensor([ 1.0000,  1.0000, -1.5708])",1.1430796088320039e-14,2.988545175219848e-14
233,233,"tensor([ 1.0000,  1.0000, -1.5708])",1.1430796088320039e-14,2.988545175219848e-14
234,234,"tensor([ 1.0000,  1.0000, -1.5708])",1.1430796088320039e-14,2.988545175219848e-14
235,235,"tensor([ 1.0000,  1.0000, -1.5708])",1.1430796088320039e-14,2.988545175219848e-14
236,236,"tensor([ 1.0000,  1.0000, -1.5708])",1.1430796088320039e-14,2.988545175219848e-14
237,237,"tensor([ 1.0000,  1.0000, -1.5708])",1.1430796088320039e-14,2.988545175219848e-14
238,238,"tensor([ 1.0000,  1.0000, -1.5708])",1.1430796088320039e-14,2.988545175219848e-14
239,239,"tensor([ 1.0000,  1.0000, -1.5708])",1.1430796088320039e-14,2.988545175219848e-14
240,240,"tensor([ 1.0000,  1.0000, -1.5708])",1.1430796088320039e-14,2.988545175219848e-14
241,241,"tensor([ 1.0000,  1.0000, -1.5708])",1.1430796088320039e-14,2.988545175219848e-14
242,242,"tensor([ 1.0000,  1.0000, -1.5708])",1.1430796088320039e-14,2.988545175219848e-14
243,243,"tensor([ 1.0000,  1.0000, -1.5708])",1.1430796088320039e-14,2.988545175219848e-14
244,244,"tensor([ 1.0000,  1.0000, -1.5708])",1.1430796088320039e-14,2.988545175219848e-14
245,245,"tensor([ 1.0000,  1.0000, -1.5708])",1.1430796088320039e-14,2.988545175219848e-14
246,246,"tensor([ 1.0000,  1.0000, -1.5708])",1.1430796088320039e-14,2.988545175219848e-14
247,247,"tensor([ 1.0000,  1.0000, -1.5708])",1.1430796088320039e-14,2.988545175219848e-14
248,248,"tensor([ 1.0000,  1.0000, -1.5708])",1.1430796088320039e-14,2.988545175219848e-14
249,249,"tensor([ 1.0000,  1.0000, -1.5708])",1.1430796088320039e-14,2.988545175219848e-14
250,250,"tensor([ 1.0000,  1.0000, -1.5708])",1.1430796088320039e-14,2.988545175219848e-14
251,251,"tensor([ 1.0000,  1.0000, -1.5708])",1.1430796088320039e-14,2.988545175219848e-14
252,252,"tensor([ 1.0000,  1.0000, -1.5708])",1.1430796088320039e-14,2.988545175219848e-14
253,253,"tensor([ 1.0000,  1.0000, -1.5708])",1.1430796088320039e-14,2.988545175219848e-14
254,254,"tensor([ 1.0000,  1.0000, -1.5708])",1.1430796088320039e-14,2.988545175219848e-14
255,255,"tensor([ 1.0000,  1.0000, -1.5708])",1.1430796088320039e-14,2.988545175219848e-14
256,256,"tensor([ 1.0000,  1.0000, -1.5708])",1.1430796088320039e-14,2.988545175219848e-14
257,257,"tensor([ 1.0000,  1.0000, -1.5708])",1.1430796088320039e-14,2.988545175219848e-14
258,258,"tensor([ 1.0000,  1.0000, -1.5708])",1.1430796088320039e-14,2.988545175219848e-14
259,259,"tensor([ 1.0000,  1.0000, -1.5708])",1.1430796088320039e-14,2.988545175219848e-14
260,260,"tensor([ 1.0000,  1.0000, -1.5708])",1.1430796088320039e-14,2.988545175219848e-14
261,261,"tensor([ 1.0000,  1.0000, -1.5708])",1.4717056241210503e-14,1.582121803359038e-14
262,262,"tensor([ 1.0000,  1.0000, -1.5708])",7.211611949969888e-15,1.582121803359038e-14
263,263,"tensor([ 1.0000,  1.0000, -1.5708])",7.211611949969888e-15,1.582121803359038e-14
264,264,"tensor([ 1.0000,  1.0000, -1.5708])",7.211611949969888e-15,1.582121803359038e-14
265,265,"tensor([ 1.0000,  1.0000, -1.5708])",7.211611949969888e-15,1.582121803359038e-14
266,266,"tensor([ 1.0000,  1.0000, -1.5708])",7.211611949969888e-15,1.582121803359038e-14
267,267,"tensor([ 1.0000,  1.0000, -1.5708])",7.211611949969888e-15,1.582121803359038e-14
268,268,"tensor([ 1.0000,  1.0000, -1.5708])",1.0761550071208825e-14,1.549830177422515e-14
269,269,"tensor([ 1.0000,  1.0000, -1.5708])",1.7076498635276715e-14,1.5726293964984927e-14
270,270,"tensor([ 1.0000,  1.0000, -1.5708])",1.7927821228426454e-14,3.081937951405231e-14
271,271,"tensor([ 1.0000,  1.0000, -1.5708])",7.436213645718725e-15,1.582121803359038e-14
272,272,"tensor([ 1.0000,  1.0000, -1.5708])",7.211611949969888e-15,1.582121803359038e-14
273,273,"tensor([ 1.0000,  1.0000, -1.5708])",1.0761550071208825e-14,1.549830177422515e-14
274,274,"tensor([ 1.0000,  1.0000, -1.5708])",2.4350679892620742e-14,5.911008262755055e-14
275,275,"tensor([ 1.0000,  1.0000, -1.5708])",7.538027710710104e-14,1.582121803359038e-14
276,276,"tensor([ 1.0000,  1.0000, -1.5708])",7.211611949969888e-15,1.582121803359038e-14
277,277,"tensor([ 1.0000,  1.0000, -1.5708])",1.0761550071208825e-14,1.549830177422515e-14
278,278,"tensor([ 1.0000,  1.0000, -1.5708])",2.4350679892620742e-14,7.506209195873303e-14
279,279,"tensor([ 1.0000,  1.0000, -1.5708])",9.063785366778682e-14,1.582121803359038e-14
280,280,"tensor([ 1.0000,  1.0000, -1.5708])",7.537042387775749e-14,2.462084572676937e-14
281,281,"tensor([ 1.0000,  1.0000, -1.5708])",1.439475491929465e-14,2.462084572676937e-14
282,282,"tensor([ 1.0000,  1.0000, -1.5708])",4.5409945335223024e-14,1.582121803359038e-14
283,283,"tensor([ 1.0000,  1.0000, -1.5708])",7.211611949969888e-15,1.582121803359038e-14
284,284,"tensor([ 1.0000,  1.0000, -1.5708])",1.0761550071208825e-14,1.549830177422515e-14
285,285,"tensor([ 1.0000,  1.0000, -1.5708])",5.932159494528855e-14,1.0036819066867062e-13
286,286,"tensor([ 1.0000,  1.0000, -1.5708])",3.693383885403426e-13,9.653158480893431e-14
287,287,"tensor([ 1.0000,  1.0000, -1.5708])",3.382457421791107e-13,8.187726755273794e-14
288,288,"tensor([ 1.0000,  1.0000, -1.5708])",5.583673454157001e-13,2.346322268420575e-13
289,289,"tensor([ 1.0000,  1.0000, -1.5708])",4.924739002015732e-13,3.4045813477462384e-13
290,290,"tensor([ 1.0000,  1.0000, -1.5708])",1.496639062681382e-12,7.293902062228149e-14
291,291,"tensor([ 1.0000,  1.0000, -1.5708])",2.0970109329554453e-13,2.168975242466953e-13
292,292,"tensor([ 1.0000,  1.0000, -1.5708])",3.6889875377511814e-14,1.582121803359038e-14
293,293,"tensor([ 1.0000,  1.0000, -1.5708])",1.7502824276732775e-14,1.1221722683369046e-14
294,294,"tensor([ 1.0000,  1.0000, -1.5708])",1.6234949582610848e-14,1.549830177422515e-14
295,295,"tensor([ 1.0000,  1.0000, -1.5708])",2.9670868626624494e-14,1.582121803359038e-14
296,296,"tensor([ 1.0000,  1.0000, -1.5708])",1.0761550071208825e-14,1.549830177422515e-14
297,297,"tensor([ 1.0000,  1.0000, -1.5708])",1.4897154907225763e-13,2.2420334686024111e-13
298,298,"tensor([ 1.0000,  1.0000, -1.5708])",1.5294205138460803e-13,1.8119337844360594e-13
299,299,"tensor([ 1.0000,  1.0000, -1.5708])",1.8133855181345914e-12,1.9607940271448855e-12
