,Epochs,Params,Train loss,Test loss
0,0,"tensor([0.0378, 0.4738, 0.4902])",1.418690286949277,0.8396902926887075
1,1,"tensor([-0.0194,  0.4813,  0.4571])",1.3539998239915196,0.7993231506397327
2,2,"tensor([-0.0856,  0.4864,  0.4349])",1.2907640260054905,0.7499901843567689
3,3,"tensor([-0.1627,  0.4868,  0.4278])",1.2110332717730974,0.6871872778050602
4,4,"tensor([-0.2520,  0.4801,  0.4409])",1.10280641527667,0.6065364562285444
5,5,"tensor([-0.3509,  0.4656,  0.4762])",0.9559491550210321,0.5106709601270267
6,6,"tensor([-0.4513,  0.4466,  0.5287])",0.7822636091150343,0.41575942820709316
7,7,"tensor([-0.5408,  0.4286,  0.5874])",0.6245759812183678,0.3414114464823515
8,8,"tensor([-0.6099,  0.4154,  0.6423])",0.5189497518197944,0.2928990690361713
9,9,"tensor([-0.6569,  0.4066,  0.6890])",0.4626482329059703,0.2628100957785591
10,10,"tensor([-0.6861,  0.3995,  0.7281])",0.4347275974520016,0.2425773290058411
11,11,"tensor([-0.7032,  0.3918,  0.7621])",0.4195042436406311,0.22693028122002942
12,12,"tensor([-0.7124,  0.3822,  0.7933])",0.4091276197849462,0.21330501483001474
13,13,"tensor([-0.7167,  0.3700,  0.8235])",0.3999948904733174,0.20061200822609257
14,14,"tensor([-0.7178,  0.3550,  0.8541])",0.39035187381474923,0.18846592276733934
15,15,"tensor([-0.7173,  0.3371,  0.8860])",0.37923388100850086,0.17678725253210056
16,16,"tensor([-0.7162,  0.3162,  0.9200])",0.36605366713677845,0.1655853029061073
17,17,"tensor([-0.7155,  0.2925,  0.9564])",0.3504636984318495,0.1548232249043489
18,18,"tensor([-0.7161,  0.2664,  0.9953])",0.33232470878089465,0.14433598115583662
19,19,"tensor([-0.7191,  0.2381,  1.0367])",0.31168725263948244,0.13380350369510172
20,20,"tensor([-0.7257,  0.2085,  1.0802])",0.2887177251900236,0.12277500922330849
21,21,"tensor([-0.7370,  0.1781,  1.1257])",0.26352758879317356,0.1107131975430093
22,22,"tensor([-0.7546,  0.1478,  1.1728])",0.23590544082593018,0.09702312160867829
23,23,"tensor([-0.7798,  0.1181,  1.2216])",0.2050455040919284,0.08111619588198664
24,24,"tensor([-0.8137,  0.0896,  1.2718])",0.1695895900328954,0.06273385963689483
25,25,"tensor([-0.8558,  0.0629,  1.3231])",0.12871700699130695,0.04281909339494518
26,26,"tensor([-0.9027,  0.0390,  1.3736])",0.08486621895960221,0.02444752933537681
27,27,"tensor([-0.9472,  0.0192,  1.4200])",0.04569468049429209,0.011619232335857533
28,28,"tensor([-0.9814,  0.0046,  1.4583])",0.01953282937320182,0.005481447514220387
29,29,"tensor([-1.0018, -0.0045,  1.4867])",0.007255352374583405,0.0034300382729876826
30,30,"tensor([-1.0103, -0.0090,  1.5062])",0.003073927343818165,0.0026276335028342147
31,31,"tensor([-1.0116, -0.0105,  1.5195])",0.0017531857531139395,0.0019891736119310127
32,32,"tensor([-1.0101, -0.0102,  1.5290])",0.0011612839014408867,0.0014224941648687188
33,33,"tensor([-1.0081, -0.0091,  1.5363])",0.0007932885601652137,0.0009818213672268428
34,34,"tensor([-1.0064, -0.0078,  1.5422])",0.0005445287788158264,0.0006670398689266222
35,35,"tensor([-1.0052, -0.0065,  1.5472])",0.0003729024817857862,0.0004499076389464562
36,36,"tensor([-1.0042, -0.0053,  1.5514])",0.0002535229205231341,0.0003019109582415543
37,37,"tensor([-1.0035, -0.0043,  1.5549])",0.00017082927223939967,0.0002014948294762083
38,38,"tensor([-1.0028, -0.0035,  1.5578])",0.00011413448482127109,0.00013362272909679025
39,39,"tensor([-1.0023, -0.0028,  1.5603])",7.566075947262145e-05,8.799135137091222e-05
40,40,"tensor([-1.0019, -0.0023,  1.5623])",4.9782339528844e-05,5.7515650019960655e-05
41,41,"tensor([-1.0015, -0.0018,  1.5639])",3.250981138952132e-05,3.7310321829409077e-05
42,42,"tensor([-1.0012e+00, -1.4768e-03,  1.5653e+00])",2.106886481675711e-05,2.401630320155353e-05
43,43,"tensor([-1.0010e+00, -1.1808e-03,  1.5664e+00])",1.3547051413572338e-05,1.533726164263764e-05
44,44,"tensor([-1.0008e+00, -9.4033e-04,  1.5673e+00])",8.639842884920294e-06,9.716169224560644e-06
45,45,"tensor([-1.0006e+00, -7.4570e-04,  1.5680e+00])",5.465820291365257e-06,6.104443520627001e-06
46,46,"tensor([-1.0005e+00, -5.8885e-04,  1.5686e+00])",3.42841994012133e-06,3.804057887180079e-06
47,47,"tensor([-1.0004e+00, -4.6302e-04,  1.5691e+00])",2.1325460864455673e-06,2.349830905975144e-06
48,48,"tensor([-1.0003e+00, -3.6249e-04,  1.5694e+00])",1.315091287127738e-06,1.4391053478372365e-06
49,49,"tensor([-1.0002e+00, -2.8257e-04,  1.5697e+00])",8.036611895079204e-07,8.733248144210393e-07
50,50,"tensor([-1.0002e+00, -2.1926e-04,  1.5700e+00])",4.869575037128963e-07,5.255058001788863e-07
51,51,"tensor([-1.0001e+00, -1.6938e-04,  1.5702e+00])",2.9231842481417893e-07,3.135131561767442e-07
52,52,"tensor([-1.0001e+00, -1.3027e-04,  1.5703e+00])",1.7411820400307457e-07,1.8543297185165859e-07
53,53,"tensor([-1.0001e+00, -9.9758e-05,  1.5704e+00])",1.0276173452912947e-07,1.0859765027978104e-07
54,54,"tensor([-1.0001e+00, -7.6036e-05,  1.5705e+00])",5.998888254291993e-08,6.295634336813313e-08
55,55,"tensor([-1.0000e+00, -5.7654e-05,  1.5706e+00])",3.469609020830452e-08,3.611412154510182e-08
56,56,"tensor([-1.0000e+00, -4.3483e-05,  1.5706e+00])",1.9871030687568238e-08,2.048024957031676e-08
57,57,"tensor([-1.0000e+00, -3.2614e-05,  1.5707e+00])",1.1261229341622917e-08,1.1537335590598256e-08
58,58,"tensor([-1.0000e+00, -2.4331e-05,  1.5707e+00])",6.34091339435372e-09,6.445280176237133e-09
59,59,"tensor([-1.0000e+00, -1.8102e-05,  1.5707e+00])",3.5307461843103736e-09,3.568742990012197e-09
60,60,"tensor([-1.0000e+00, -1.3395e-05,  1.5707e+00])",1.9519110624107347e-09,1.9623695409383873e-09
61,61,"tensor([-1.0000e+00, -9.8595e-06,  1.5708e+00])",1.062274283351409e-09,1.0561535201958349e-09
62,62,"tensor([-1.0000e+00, -7.2090e-06,  1.5708e+00])",5.709468231529513e-10,5.663608989200005e-10
63,63,"tensor([-1.0000e+00, -5.2469e-06,  1.5708e+00])",3.044346737664701e-10,3.0052815051343863e-10
64,64,"tensor([-1.0000e+00, -3.8197e-06,  1.5708e+00])",1.589597860747934e-10,1.5845406468410297e-10
65,65,"tensor([-1.0000e+00, -2.7513e-06,  1.5708e+00])",8.478716432650894e-11,7.87611901624056e-11
66,66,"tensor([-1.0000e+00, -1.9547e-06,  1.5708e+00])",4.151710456904804e-11,3.7193714774730326e-11
67,67,"tensor([-1.0000e+00, -1.3468e-06,  1.5708e+00])",2.1109912197910438e-11,2.168611956676614e-11
68,68,"tensor([-1.0000e+00, -9.6465e-07,  1.5708e+00])",1.1118472809101832e-11,1.1432647421353673e-11
69,69,"tensor([-1.0000e+00, -6.9877e-07,  1.5708e+00])",5.832364452507122e-12,6.425689610030834e-12
