,Epochs,Params,Train loss,Test loss
0,0,"tensor([0.8792, 0.0715, 0.5324])",0.6627398450472538,0.8457117714818377
1,1,"tensor([8.5570e-01, 2.2526e-04, 5.3528e-01])",0.6038383931253883,0.8254370986993308
2,2,"tensor([ 0.8403, -0.0239,  0.5455])",0.5948902930415352,0.823715046658549
3,3,"tensor([ 0.8307, -0.0328,  0.5557])",0.5933038561540889,0.8257366694169468
4,4,"tensor([ 0.8250, -0.0368,  0.5639])",0.5927582188431961,0.828124701214183
5,5,"tensor([ 0.8217, -0.0390,  0.5701])",0.5924797505725655,0.8302010043018617
6,6,"tensor([ 0.8198, -0.0404,  0.5748])",0.5923162865202175,0.8319002953526069
7,7,"tensor([ 0.8190, -0.0414,  0.5785])",0.5922131573401566,0.8332852664752863
8,8,"tensor([ 0.8188, -0.0422,  0.5815])",0.5921443770363112,0.834430085409258
9,9,"tensor([ 0.8190, -0.0427,  0.5839])",0.59209637514301,0.8353961602778872
10,10,"tensor([ 0.8194, -0.0432,  0.5859])",0.5920617531815515,0.836230047052959
11,11,"tensor([ 0.8201, -0.0436,  0.5877])",0.5920360840639478,0.8369658016128233
12,12,"tensor([ 0.8208, -0.0439,  0.5892])",0.5920168520200968,0.8376280909212074
13,13,"tensor([ 0.8216, -0.0442,  0.5906])",0.5920024029231172,0.8382351432804717
14,14,"tensor([ 0.8225, -0.0445,  0.5919])",0.5919914516956033,0.8388002254656749
15,15,"tensor([ 0.8234, -0.0447,  0.5931])",0.5919833206730538,0.8393331465683878
16,16,"tensor([ 0.8243, -0.0450,  0.5943])",0.5919773731675332,0.8398415532457875
17,17,"tensor([ 0.8252, -0.0452,  0.5954])",0.5919732367564756,0.840330915984814
18,18,"tensor([ 0.8261, -0.0454,  0.5965])",0.5919705682070707,0.8408059351402335
19,19,"tensor([ 0.8270, -0.0456,  0.5975])",0.5919690410307794,0.8412701190495864
20,20,"tensor([ 0.8280, -0.0458,  0.5985])",0.591968649422064,0.8417265012697317
21,21,"tensor([ 0.8289, -0.0460,  0.5996])",0.5919692075448892,0.8421777555183507
22,22,"tensor([ 0.8299, -0.0462,  0.6006])",0.5919705148193316,0.8426260194071802
23,23,"tensor([ 0.8308, -0.0463,  0.6016])",0.591972512505963,0.843073346411693
24,24,"tensor([ 0.8318, -0.0465,  0.6026])",0.5919751886976883,0.8435214462125441
25,25,"tensor([ 0.8328, -0.0467,  0.6037])",0.5919784116411756,0.8439723266876535
26,26,"tensor([ 0.8338, -0.0469,  0.6047])",0.5919822899016435,0.8444276463589631
27,27,"tensor([ 0.8348, -0.0471,  0.6058])",0.5919866411539261,0.8448891746549634
28,28,"tensor([ 0.8359, -0.0473,  0.6069])",0.59199156129529,0.8453587187029189
29,29,"tensor([ 0.8370, -0.0475,  0.6080])",0.591996982889832,0.8458382236619946
30,30,"tensor([ 0.8382, -0.0478,  0.6092])",0.5920029011543374,0.8463296174595598
31,31,"tensor([ 0.8394, -0.0480,  0.6104])",0.5920093772857217,0.8468350995023503
32,32,"tensor([ 0.8406, -0.0482,  0.6116])",0.5920163545320974,0.8473570331191876
33,33,"tensor([ 0.8419, -0.0485,  0.6129])",0.5920239224270335,0.8478980927309021
34,34,"tensor([ 0.8433, -0.0487,  0.6143])",0.5920320380959311,0.8484609005355742
35,35,"tensor([ 0.8447, -0.0490,  0.6157])",0.5920407231556601,0.849048853656277
36,36,"tensor([ 0.8463, -0.0493,  0.6172])",0.5920500632360927,0.8496653950371547
37,37,"tensor([ 0.8479, -0.0496,  0.6188])",0.5920600223680959,0.8503147704992443
38,38,"tensor([ 0.8497, -0.0499,  0.6206])",0.5920706350010004,0.8510015719925286
39,39,"tensor([ 0.8516, -0.0503,  0.6224])",0.5920818588952534,0.8517311766766943
40,40,"tensor([ 0.8537, -0.0506,  0.6244])",0.5920936946175062,0.8525098238780628
41,41,"tensor([ 0.8559, -0.0511,  0.6266])",0.5921059974719537,0.8533447483630152
42,42,"tensor([ 0.8584, -0.0515,  0.6289])",0.592118617199012,0.8542443068342982
43,43,"tensor([ 0.8612, -0.0520,  0.6315])",0.592131238403963,0.8552180621428124
44,44,"tensor([ 0.8643, -0.0526,  0.6344])",0.5921432719024596,0.856277592601316
45,45,"tensor([ 0.8677, -0.0532,  0.6377])",0.5921538125863299,0.8574361038878123
46,46,"tensor([ 0.8717, -0.0539,  0.6413])",0.5921612911461852,0.8587089341616957
47,47,"tensor([ 0.8762, -0.0547,  0.6455])",0.5921630557667231,0.8601133986929199
48,48,"tensor([ 0.8814, -0.0557,  0.6503])",0.5921546757075703,0.8616684034332865
49,49,"tensor([ 0.8876, -0.0568,  0.6559])",0.5921285266312407,0.863393625872559
50,50,"tensor([ 0.8949, -0.0581,  0.6626])",0.5920717059349409,0.865306284193066
51,51,"tensor([ 0.9037, -0.0597,  0.6705])",0.5919614166658721,0.8674153328444664
52,52,"tensor([ 0.9144, -0.0616,  0.6802])",0.5917577697875822,0.8697094277614087
53,53,"tensor([ 0.9276, -0.0640,  0.6920])",0.5913893986329964,0.8721335022058337
54,54,"tensor([ 0.9441, -0.0670,  0.7069])",0.5907300242235942,0.8745496427288617
55,55,"tensor([ 0.9647, -0.0708,  0.7256])",0.5895609394088388,0.8766801061053706
56,56,"tensor([ 0.9905, -0.0756,  0.7493])",0.5875307805510238,0.8780664203283959
57,57,"tensor([ 1.0218, -0.0815,  0.7790])",0.5841633622806693,0.878153777840198
58,58,"tensor([ 1.0579, -0.0882,  0.8148])",0.579047426427569,0.8766801544924965
59,59,"tensor([ 1.0959, -0.0952,  0.8555])",0.5723034555469348,0.8742481811001198
60,60,"tensor([ 1.1310, -0.1011,  0.8980])",0.5649514922320669,0.8722409988306754
61,61,"tensor([ 1.1594, -0.1053,  0.9383])",0.558422180065827,0.8717201573107013
62,62,"tensor([ 1.1796, -0.1075,  0.9736])",0.553541405777279,0.8727105605326506
63,63,"tensor([ 1.1926, -0.1085,  1.0029])",0.5502673873389221,0.8746162417209962
64,64,"tensor([ 1.2006, -0.1089,  1.0263])",0.5481726269706997,0.8768315516019356
65,65,"tensor([ 1.2053, -0.1090,  1.0448])",0.5468441994182172,0.8789720508052414
66,66,"tensor([ 1.2080, -0.1092,  1.0592])",0.5459948284858365,0.8808589997473609
67,67,"tensor([ 1.2096, -0.1094,  1.0704])",0.5454438167349145,0.8824414129304933
68,68,"tensor([ 1.2106, -0.1097,  1.0791])",0.5450813038536398,0.8837313682970125
69,69,"tensor([ 1.2111, -0.1100,  1.0858])",0.5448398939024082,0.8847657234116924
70,70,"tensor([ 1.2114, -0.1102,  1.0909])",0.5446779805698532,0.8855873074405827
71,71,"tensor([ 1.2116, -0.1104,  1.0950])",0.5445691719225624,0.8862358840106753
72,72,"tensor([ 1.2117, -0.1106,  1.0981])",0.5444965691569359,0.8867464016372105
73,73,"tensor([ 1.2117, -0.1108,  1.1005])",0.5444490534614033,0.8871472539531533
74,74,"tensor([ 1.2118, -0.1109,  1.1024])",0.5444190977070502,0.8874615479726344
75,75,"tensor([ 1.2118, -0.1110,  1.1038])",0.544401581296097,0.8877080357295927
76,76,"tensor([ 1.2118, -0.1110,  1.1049])",0.5443929700025728,0.8879014772444498
77,77,"tensor([ 1.2118, -0.1111,  1.1058])",0.5443907537082486,0.8880534241977148
78,78,"tensor([ 1.2117, -0.1111,  1.1065])",0.5443930586784336,0.8881729694688693
79,79,"tensor([ 1.2117, -0.1112,  1.1070])",0.544398748678941,0.888267350171227
80,80,"tensor([ 1.2117, -0.1112,  1.1074])",0.5444066193682011,0.8883421102445572
81,81,"tensor([ 1.2117, -0.1112,  1.1077])",0.5444161874064958,0.8884017116378528
82,82,"tensor([ 1.2117, -0.1112,  1.1080])",0.5444267732136723,0.8884491832170169
83,83,"tensor([ 1.2117, -0.1112,  1.1082])",0.5444380729239129,0.8884874544129707
84,84,"tensor([ 1.2117, -0.1112,  1.1083])",0.5444498309310438,0.8885185676743277
85,85,"tensor([ 1.2117, -0.1112,  1.1085])",0.5444616429389861,0.8885438231995795
86,86,"tensor([ 1.2117, -0.1112,  1.1086])",0.5444736056520196,0.8885648589686025
87,87,"tensor([ 1.2117, -0.1112,  1.1086])",0.5444854444215526,0.8885825166048016
88,88,"tensor([ 1.2117, -0.1112,  1.1087])",0.5444969973171828,0.8885974935360719
89,89,"tensor([ 1.2117, -0.1112,  1.1087])",0.5445083849478397,0.8886101551004686
90,90,"tensor([ 1.2116, -0.1112,  1.1088])",0.544519376210701,0.8886210105801001
91,91,"tensor([ 1.2116, -0.1112,  1.1088])",0.5445300984951973,0.8886305516655557
92,92,"tensor([ 1.2116, -0.1112,  1.1089])",0.5445404361801411,0.8886391235899646
93,93,"tensor([ 1.2116, -0.1112,  1.1089])",0.5445504382907166,0.8886467300739604
94,94,"tensor([ 1.2116, -0.1112,  1.1089])",0.5445600522866516,0.888653421534691
95,95,"tensor([ 1.2116, -0.1112,  1.1089])",0.5445692924739342,0.888659611651674
96,96,"tensor([ 1.2116, -0.1112,  1.1089])",0.5445781316099602,0.8886654660163913
97,97,"tensor([ 1.2116, -0.1112,  1.1090])",0.5445866468889653,0.8886706841306296
98,98,"tensor([ 1.2116, -0.1111,  1.1090])",0.5445948155088991,0.888675494970521
99,99,"tensor([ 1.2116, -0.1111,  1.1090])",0.5446026522523607,0.8886800623452291
100,100,"tensor([ 1.2116, -0.1111,  1.1090])",0.5446101974095654,0.8886844087799546
101,101,"tensor([ 1.2116, -0.1111,  1.1090])",0.5446172896831922,0.8886884493147954
102,102,"tensor([ 1.2116, -0.1111,  1.1090])",0.544624108893695,0.8886923515156377
103,103,"tensor([ 1.2116, -0.1111,  1.1090])",0.5446306351197927,0.888696004935773
104,104,"tensor([ 1.2116, -0.1111,  1.1090])",0.5446368645751863,0.8886993227736093
105,105,"tensor([ 1.2116, -0.1111,  1.1090])",0.5446428542270223,0.8887025582778734
106,106,"tensor([ 1.2116, -0.1111,  1.1090])",0.5446484986900032,0.8887057164299768
107,107,"tensor([ 1.2116, -0.1111,  1.1090])",0.5446539120188026,0.8887084961542859
108,108,"tensor([ 1.2116, -0.1111,  1.1091])",0.544659100900244,0.8887112333695404
109,109,"tensor([ 1.2116, -0.1111,  1.1091])",0.5446640778412984,0.8887137968325988
110,110,"tensor([ 1.2116, -0.1111,  1.1091])",0.5446687682863921,0.8887163918325678
111,111,"tensor([ 1.2116, -0.1111,  1.1091])",0.5446732072667874,0.8887187822523992
112,112,"tensor([ 1.2116, -0.1111,  1.1091])",0.5446775218166658,0.888721036670031
113,113,"tensor([ 1.2116, -0.1111,  1.1091])",0.5446816656795272,0.8887231544603128
114,114,"tensor([ 1.2116, -0.1111,  1.1091])",0.5446854885182256,0.8887251649016981
115,115,"tensor([ 1.2116, -0.1111,  1.1091])",0.5446892510075486,0.8887272020778618
116,116,"tensor([ 1.2116, -0.1111,  1.1091])",0.5446927709176816,0.8887290772586129
117,117,"tensor([ 1.2116, -0.1111,  1.1091])",0.5446961193395328,0.8887307801644784
118,118,"tensor([ 1.2116, -0.1111,  1.1091])",0.5446994032129442,0.8887324138265104
119,119,"tensor([ 1.2116, -0.1111,  1.1091])",0.5447024220335516,0.8887340499507264
120,120,"tensor([ 1.2116, -0.1111,  1.1091])",0.5447053062380292,0.8887357053009327
121,121,"tensor([ 1.2116, -0.1111,  1.1091])",0.5447081109385908,0.888737117680721
122,122,"tensor([ 1.2116, -0.1111,  1.1091])",0.5447107489180053,0.8887384323705919
123,123,"tensor([ 1.2116, -0.1111,  1.1091])",0.5447132058799616,0.8887396803870797
124,124,"tensor([ 1.2116, -0.1111,  1.1091])",0.5447156839945092,0.8887409294501413
125,125,"tensor([ 1.2116, -0.1111,  1.1091])",0.5447180064639906,0.8887420777254738
126,126,"tensor([ 1.2116, -0.1111,  1.1091])",0.5447201431778013,0.8887431877211202
127,127,"tensor([ 1.2116, -0.1111,  1.1091])",0.5447221931061358,0.8887443848862313
128,128,"tensor([ 1.2116, -0.1111,  1.1091])",0.5447241779384422,0.8887453662150073
129,129,"tensor([ 1.2116, -0.1111,  1.1091])",0.54472606764597,0.8887463784380816
130,130,"tensor([ 1.2116, -0.1111,  1.1091])",0.5447278098171592,0.8887473480508197
131,131,"tensor([ 1.2116, -0.1111,  1.1091])",0.5447295056992516,0.888748346894281
132,132,"tensor([ 1.2115, -0.1111,  1.1091])",0.5447311299828652,0.8887492535763886
133,133,"tensor([ 1.2115, -0.1111,  1.1091])",0.5447326461487318,0.8887498718418647
134,134,"tensor([ 1.2115, -0.1110,  1.1092])",0.544734064912991,0.8887505805096589
135,135,"tensor([ 1.2115, -0.1110,  1.1092])",0.5447355226473519,0.8887512847210747
136,136,"tensor([ 1.2115, -0.1110,  1.1092])",0.5447368741553873,0.8887519427575171
137,137,"tensor([ 1.2115, -0.1110,  1.1092])",0.544738073144108,0.888752585091861
138,138,"tensor([ 1.2115, -0.1110,  1.1092])",0.5447393062306582,0.888753233985044
139,139,"tensor([ 1.2115, -0.1110,  1.1092])",0.5447404623553667,0.8887538057111669
140,140,"tensor([ 1.2115, -0.1110,  1.1092])",0.5447415372890828,0.8887544796522707
141,141,"tensor([ 1.2115, -0.1110,  1.1092])",0.5447425949694662,0.8887550769979135
142,142,"tensor([ 1.2115, -0.1110,  1.1092])",0.5447435664663862,0.8887554457015358
143,143,"tensor([ 1.2115, -0.1110,  1.1092])",0.5447445177650297,0.8887560616980772
144,144,"tensor([ 1.2115, -0.1110,  1.1092])",0.5447453880700414,0.8887564641551581
145,145,"tensor([ 1.2115, -0.1110,  1.1092])",0.544746175162436,0.8887569780251943
146,146,"tensor([ 1.2115, -0.1110,  1.1092])",0.5447469955715496,0.8887574056326412
147,147,"tensor([ 1.2115, -0.1110,  1.1092])",0.5447478067236079,0.8887577995005995
148,148,"tensor([ 1.2115, -0.1110,  1.1092])",0.5447485115156815,0.888758157514967
149,149,"tensor([ 1.2115, -0.1110,  1.1092])",0.5447491767951942,0.8887585347983986
150,150,"tensor([ 1.2115, -0.1110,  1.1092])",0.544749879388728,0.8887588673597202
151,151,"tensor([ 1.2115, -0.1110,  1.1092])",0.544750493491556,0.888759356525261
152,152,"tensor([ 1.2115, -0.1110,  1.1092])",0.5447510770557347,0.8887595335254446
153,153,"tensor([ 1.2115, -0.1110,  1.1092])",0.544751712494799,0.8887598309002351
154,154,"tensor([ 1.2115, -0.1110,  1.1092])",0.5447522290118286,0.8887600252847188
155,155,"tensor([ 1.2115, -0.1110,  1.1092])",0.5447527113082833,0.8887603337666952
156,156,"tensor([ 1.2115, -0.1110,  1.1092])",0.5447532418861374,0.8887606765283271
157,157,"tensor([ 1.2115, -0.1110,  1.1092])",0.5447536727173792,0.8887609005370177
158,158,"tensor([ 1.2115, -0.1110,  1.1092])",0.5447540692311668,0.8887610944453627
159,159,"tensor([ 1.2115, -0.1110,  1.1092])",0.5447544975913479,0.8887611973471939
160,160,"tensor([ 1.2115, -0.1110,  1.1092])",0.5447549057783908,0.8887614839954767
161,161,"tensor([ 1.2115, -0.1110,  1.1092])",0.5447553194289867,0.8887616233224981
162,162,"tensor([ 1.2115, -0.1110,  1.1092])",0.5447556602326222,0.8887618691008538
163,163,"tensor([ 1.2115, -0.1110,  1.1092])",0.5447560321262063,0.8887620260438416
164,164,"tensor([ 1.2115, -0.1110,  1.1092])",0.544756378571401,0.8887623788788914
165,165,"tensor([ 1.2115, -0.1110,  1.1092])",0.5447566599099446,0.8887624592811335
166,166,"tensor([ 1.2115, -0.1110,  1.1092])",0.5447569763564752,0.8887626618228387
167,167,"tensor([ 1.2115, -0.1110,  1.1092])",0.5447571932458959,0.8887629226245918
168,168,"tensor([ 1.2115, -0.1110,  1.1092])",0.544757488128489,0.8887630640121642
169,169,"tensor([ 1.2115, -0.1110,  1.1092])",0.5447577658222145,0.8887632555002347
170,170,"tensor([ 1.2115, -0.1110,  1.1092])",0.5447579776661587,0.8887633607746102
171,171,"tensor([ 1.2115, -0.1110,  1.1092])",0.5447581797713065,0.8887633876840119
172,172,"tensor([ 1.2115, -0.1110,  1.1092])",0.5447584426720278,0.8887634906952735
173,173,"tensor([ 1.2115, -0.1110,  1.1092])",0.5447586896791472,0.8887635239353403
174,174,"tensor([ 1.2115, -0.1110,  1.1092])",0.5447588502394501,0.8887636476103217
175,175,"tensor([ 1.2115, -0.1110,  1.1092])",0.5447589949599205,0.8887636888050474
176,176,"tensor([ 1.2115, -0.1110,  1.1092])",0.5447592252570758,0.8887637222395278
177,177,"tensor([ 1.2115, -0.1110,  1.1092])",0.544759409822509,0.8887637725530658
178,178,"tensor([ 1.2115, -0.1110,  1.1092])",0.5447595759881005,0.8887639151641633
179,179,"tensor([ 1.2115, -0.1110,  1.1092])",0.5447597247786325,0.888764034321066
180,180,"tensor([ 1.2115, -0.1110,  1.1092])",0.5447598812601063,0.8887642008170951
181,181,"tensor([ 1.2115, -0.1110,  1.1092])",0.5447600211575627,0.8887641629495192
182,182,"tensor([ 1.2115, -0.1110,  1.1092])",0.5447600990350474,0.8887642108940054
183,183,"tensor([ 1.2115, -0.1110,  1.1092])",0.5447601896789274,0.8887643123872112
184,184,"tensor([ 1.2115, -0.1110,  1.1092])",0.5447603165686451,0.888764324291842
185,185,"tensor([ 1.2115, -0.1110,  1.1092])",0.5447604376375602,0.8887642966688145
186,186,"tensor([ 1.2115, -0.1110,  1.1092])",0.5447605991499586,0.8887644319189713
187,187,"tensor([ 1.2115, -0.1110,  1.1092])",0.5447606949056353,0.8887645075528416
188,188,"tensor([ 1.2115, -0.1110,  1.1092])",0.5447608414259594,0.8887645172106567
189,189,"tensor([ 1.2115, -0.1110,  1.1092])",0.5447609049444873,0.8887645775347482
190,190,"tensor([ 1.2115, -0.1110,  1.1092])",0.5447610289966542,0.8887646228040103
191,191,"tensor([ 1.2115, -0.1110,  1.1092])",0.5447611014265568,0.8887647394859232
192,192,"tensor([ 1.2115, -0.1110,  1.1092])",0.5447611663167481,0.8887648621504195
193,193,"tensor([ 1.2115, -0.1110,  1.1092])",0.5447612255891363,0.8887648516998161
194,194,"tensor([ 1.2115, -0.1110,  1.1092])",0.5447612188544008,0.888764977712417
195,195,"tensor([ 1.2115, -0.1110,  1.1092])",0.5447613060550066,0.8887650306068826
196,196,"tensor([ 1.2115, -0.1110,  1.1092])",0.5447613289682703,0.888765017624246
197,197,"tensor([ 1.2115, -0.1110,  1.1092])",0.5447614510697895,0.8887649252661504
198,198,"tensor([ 1.2115, -0.1110,  1.1092])",0.5447614838919254,0.888764958952088
199,199,"tensor([ 1.2115, -0.1110,  1.1092])",0.5447615299679456,0.8887649259832687
200,200,"tensor([ 1.2115, -0.1110,  1.1092])",0.544761582708743,0.8887650127720553
201,201,"tensor([ 1.2115, -0.1110,  1.1092])",0.5447616959808511,0.8887650519132149
202,202,"tensor([ 1.2115, -0.1110,  1.1092])",0.5447617284834269,0.8887650708004367
203,203,"tensor([ 1.2115, -0.1110,  1.1092])",0.5447617994106259,0.8887650938599836
204,204,"tensor([ 1.2115, -0.1110,  1.1092])",0.5447618927937583,0.8887651467125397
205,205,"tensor([ 1.2115, -0.1110,  1.1092])",0.5447619323710023,0.8887652068596799
206,206,"tensor([ 1.2115, -0.1110,  1.1092])",0.5447619463916635,0.888765194916632
207,207,"tensor([ 1.2115, -0.1110,  1.1092])",0.5447620269639447,0.8887653102888726
208,208,"tensor([ 1.2115, -0.1110,  1.1092])",0.5447620163695683,0.8887653138837777
209,209,"tensor([ 1.2115, -0.1110,  1.1092])",0.5447619860535633,0.8887653126358055
210,210,"tensor([ 1.2115, -0.1110,  1.1092])",0.5447620341633592,0.8887653515278362
211,211,"tensor([ 1.2115, -0.1110,  1.1092])",0.5447621116115624,0.8887653838447295
212,212,"tensor([ 1.2115, -0.1110,  1.1092])",0.5447621515245555,0.8887653974979185
213,213,"tensor([ 1.2115, -0.1110,  1.1092])",0.5447621337060263,0.8887654099497013
214,214,"tensor([ 1.2115, -0.1110,  1.1092])",0.5447621813676232,0.8887654099497013
215,215,"tensor([ 1.2115, -0.1110,  1.1092])",0.5447621577346581,0.8887654115422629
216,216,"tensor([ 1.2115, -0.1110,  1.1092])",0.5447621773017454,0.8887653945921921
217,217,"tensor([ 1.2115, -0.1110,  1.1092])",0.5447622136452628,0.8887654012604617
218,218,"tensor([ 1.2115, -0.1110,  1.1092])",0.5447622139169834,0.8887653355661314
219,219,"tensor([ 1.2115, -0.1110,  1.1092])",0.5447621783211435,0.8887653414334636
220,220,"tensor([ 1.2115, -0.1110,  1.1092])",0.5447621834694292,0.8887653102516196
221,221,"tensor([ 1.2115, -0.1110,  1.1092])",0.5447622318710637,0.8887652390799485
222,222,"tensor([ 1.2115, -0.1110,  1.1092])",0.5447622582215627,0.8887652090995107
223,223,"tensor([ 1.2115, -0.1110,  1.1092])",0.5447622624833457,0.8887652185349725
224,224,"tensor([ 1.2115, -0.1110,  1.1092])",0.5447623068808389,0.8887652112008072
225,225,"tensor([ 1.2115, -0.1110,  1.1092])",0.5447623220125024,0.8887652503408026
226,226,"tensor([ 1.2115, -0.1110,  1.1092])",0.5447623478242167,0.8887652204639744
227,227,"tensor([ 1.2115, -0.1110,  1.1092])",0.5447623556547841,0.88876525171916
228,228,"tensor([ 1.2115, -0.1110,  1.1092])",0.5447623918961472,0.8887653443892486
229,229,"tensor([ 1.2115, -0.1110,  1.1092])",0.5447623877687147,0.8887654030369595
230,230,"tensor([ 1.2115, -0.1110,  1.1092])",0.5447624149181138,0.8887654285144526
231,231,"tensor([ 1.2115, -0.1110,  1.1092])",0.5447624411428115,0.8887653887504712
232,232,"tensor([ 1.2115, -0.1110,  1.1092])",0.5447624281668686,0.8887653887504712
233,233,"tensor([ 1.2115, -0.1110,  1.1092])",0.5447624537558294,0.8887654507928527
234,234,"tensor([ 1.2115, -0.1110,  1.1092])",0.5447624858142808,0.8887654520780779
235,235,"tensor([ 1.2115, -0.1110,  1.1092])",0.5447624611062929,0.8887654604658018
236,236,"tensor([ 1.2115, -0.1110,  1.1092])",0.5447624717070721,0.888765449289931
237,237,"tensor([ 1.2115, -0.1110,  1.1092])",0.544762503792881,0.8887654547998681
238,238,"tensor([ 1.2115, -0.1110,  1.1092])",0.5447624509870002,0.888765542046167
239,239,"tensor([ 1.2115, -0.1110,  1.1092])",0.5447624803424697,0.8887655142671429
240,240,"tensor([ 1.2115, -0.1110,  1.1092])",0.5447624940073001,0.8887655601126607
241,241,"tensor([ 1.2115, -0.1110,  1.1092])",0.5447625202124619,0.8887655865529086
242,242,"tensor([ 1.2115, -0.1110,  1.1092])",0.5447624960248504,0.8887656328838784
243,243,"tensor([ 1.2115, -0.1110,  1.1092])",0.5447625080226135,0.8887656961020548
244,244,"tensor([ 1.2115, -0.1110,  1.1092])",0.5447625455393063,0.8887657077249606
245,245,"tensor([ 1.2115, -0.1110,  1.1092])",0.544762530014159,0.8887656961020548
246,246,"tensor([ 1.2115, -0.1110,  1.1092])",0.5447625632716881,0.8887656997342128
247,247,"tensor([ 1.2115, -0.1110,  1.1092])",0.5447625586606591,0.8887657221150584
248,248,"tensor([ 1.2115, -0.1110,  1.1092])",0.5447625579318992,0.8887657347053755
249,249,"tensor([ 1.2115, -0.1110,  1.1092])",0.5447625933723248,0.8887657452945131
250,250,"tensor([ 1.2115, -0.1110,  1.1092])",0.5447625490856081,0.888765760079259
251,251,"tensor([ 1.2115, -0.1110,  1.1092])",0.5447625555414197,0.888765812679194
252,252,"tensor([ 1.2115, -0.1110,  1.1092])",0.5447625580001113,0.8887658356269822
253,253,"tensor([ 1.2115, -0.1110,  1.1092])",0.5447625718419659,0.8887658296572044
254,254,"tensor([ 1.2115, -0.1110,  1.1092])",0.5447625955883632,0.888765829061158
255,255,"tensor([ 1.2115, -0.1110,  1.1092])",0.54476256785234,0.8887657795369159
256,256,"tensor([ 1.2115, -0.1110,  1.1092])",0.5447625822267219,0.8887657759606372
257,257,"tensor([ 1.2115, -0.1110,  1.1092])",0.5447625998397779,0.888765772691695
258,258,"tensor([ 1.2115, -0.1110,  1.1092])",0.5447626004265111,0.8887657777487766
259,259,"tensor([ 1.2115, -0.1110,  1.1092])",0.5447626077188397,0.8887657759606372
260,260,"tensor([ 1.2115, -0.1110,  1.1092])",0.5447626075418884,0.8887657759606372
261,261,"tensor([ 1.2115, -0.1110,  1.1092])",0.5447626170786316,0.888765767615987
262,262,"tensor([ 1.2115, -0.1110,  1.1092])",0.5447626007723375,0.8887657498603221
263,263,"tensor([ 1.2115, -0.1110,  1.1092])",0.5447626070941988,0.8887657806545031
264,264,"tensor([ 1.2115, -0.1110,  1.1092])",0.5447626185483023,0.8887657739489805
265,265,"tensor([ 1.2115, -0.1110,  1.1092])",0.5447626261106415,0.8887657703727018
266,266,"tensor([ 1.2115, -0.1110,  1.1092])",0.5447626296403542,0.8887657703727018
267,267,"tensor([ 1.2115, -0.1110,  1.1092])",0.5447626095103988,0.8887657428567763
268,268,"tensor([ 1.2115, -0.1110,  1.1092])",0.5447625979713121,0.8887657359545119
269,269,"tensor([ 1.2115, -0.1110,  1.1092])",0.5447626030609899,0.8887657477264292
270,270,"tensor([ 1.2115, -0.1110,  1.1092])",0.544762595759421,0.8887657504086383
271,271,"tensor([ 1.2115, -0.1110,  1.1092])",0.5447626017198854,0.8887657504086383
272,272,"tensor([ 1.2115, -0.1110,  1.1092])",0.5447626051471525,0.8887657653097994
273,273,"tensor([ 1.2115, -0.1110,  1.1092])",0.5447626055569345,0.8887657702504658
274,274,"tensor([ 1.2115, -0.1110,  1.1092])",0.5447626131937795,0.8887657653097994
275,275,"tensor([ 1.2115, -0.1110,  1.1092])",0.5447626129749188,0.8887657451932318
276,276,"tensor([ 1.2115, -0.1110,  1.1092])",0.5447626017535367,0.8887657653645147
277,277,"tensor([ 1.2115, -0.1110,  1.1092])",0.5447626299866897,0.8887657244608271
278,278,"tensor([ 1.2115, -0.1110,  1.1092])",0.5447626246436994,0.8887657103233505
279,279,"tensor([ 1.2115, -0.1110,  1.1092])",0.5447626373702223,0.8887657653645147
280,280,"tensor([ 1.2115, -0.1110,  1.1092])",0.5447626212490286,0.8887657658208628
281,281,"tensor([ 1.2115, -0.1110,  1.1092])",0.5447626292852874,0.8887657774693798
282,282,"tensor([ 1.2115, -0.1110,  1.1092])",0.5447626219399535,0.8887657658208628
283,283,"tensor([ 1.2115, -0.1110,  1.1092])",0.5447626382968883,0.8887657658208628
284,284,"tensor([ 1.2115, -0.1110,  1.1092])",0.5447626349860366,0.8887657653645147
285,285,"tensor([ 1.2115, -0.1110,  1.1092])",0.5447626349860366,0.8887657653645147
286,286,"tensor([ 1.2115, -0.1110,  1.1092])",0.5447626212955947,0.8887657653645147
287,287,"tensor([ 1.2115, -0.1110,  1.1092])",0.5447626355262036,0.8887657732411753
288,288,"tensor([ 1.2115, -0.1110,  1.1092])",0.5447626382520684,0.8887657850130927
289,289,"tensor([ 1.2115, -0.1110,  1.1092])",0.5447626428836521,0.8887657732411753
290,290,"tensor([ 1.2115, -0.1110,  1.1092])",0.544762626152442,0.8887657057691831
291,291,"tensor([ 1.2115, -0.1110,  1.1092])",0.544762655405284,0.8887657105247491
292,292,"tensor([ 1.2115, -0.1110,  1.1092])",0.5447626528255205,0.8887657103233505
293,293,"tensor([ 1.2115, -0.1110,  1.1092])",0.5447626769654016,0.888765700814547
294,294,"tensor([ 1.2115, -0.1110,  1.1092])",0.5447626540641796,0.8887657103233505
295,295,"tensor([ 1.2115, -0.1110,  1.1092])",0.5447626769654016,0.888765700814547
296,296,"tensor([ 1.2115, -0.1110,  1.1092])",0.5447626782040607,0.888765700814547
297,297,"tensor([ 1.2115, -0.1110,  1.1092])",0.5447626782040607,0.888765700814547
298,298,"tensor([ 1.2115, -0.1110,  1.1092])",0.5447626782040607,0.888765700814547
299,299,"tensor([ 1.2115, -0.1110,  1.1092])",0.5447626755218516,0.888765700814547
